<svg width="375" height="254" viewBox="0 0 375 254" fill="none" xmlns="http://www.w3.org/2000/svg">
    <rect width="375" height="254" fill="url(#paint0_linear)"/>
    <path fill-rule="evenodd" clip-rule="evenodd" d="M240 153H188C190.168 151.186 192.979 150.083 196.06 150.083C196.491 150.083 196.917 150.106 197.337 150.147C198.062 144.141 203.295 139.48 209.648 139.48C212.19 139.48 214.553 140.227 216.521 141.508C217.218 140.029 218.747 139 220.524 139C222.961 139 224.935 140.927 224.935 143.302C224.935 144.309 224.577 145.231 223.984 145.963C224.296 146.193 224.552 146.492 224.717 146.842C225.772 146.156 227.037 145.755 228.4 145.755C231.804 145.755 234.607 148.253 234.996 151.471C235.222 151.449 235.45 151.437 235.681 151.437C237.332 151.437 238.838 152.028 240 153L240 153Z" fill="#5C7EAE"/>
    <path fill-rule="evenodd" clip-rule="evenodd" d="M36.0917 138.169H27.7489H16.9355H-8C-6.16165 136.593 -3.77842 135.634 -1.16595 135.634C-0.799218 135.634 -0.439043 135.653 -0.08183 135.69C0.532252 130.468 4.9706 126.417 10.3559 126.417C12.5117 126.417 14.5145 127.066 16.1833 128.179C16.7751 126.893 18.0706 126 19.5782 126C21.6429 126 23.3179 127.674 23.3179 129.739C23.3179 130.614 23.015 131.416 22.5114 132.053C22.7763 132.252 22.993 132.512 23.1323 132.816C24.027 132.219 25.1007 131.871 26.2552 131.871C29.1421 131.871 31.52 134.043 31.8489 136.841C32.0396 136.821 32.2335 136.811 32.4295 136.811C33.829 136.811 35.107 137.324 36.0916 138.169L36.0917 138.169Z" fill="#5C7EAE"/>
    <path d="M120 131C120 131.553 119.552 132 119 132C118.448 132 118 131.553 118 131C118 130.447 118.448 130 119 130C119.552 130 120 130.447 120 131Z" fill="#FEFEFE"/>
    <path d="M288.143 79.5711C288.143 80.4397 287.439 81.1425 286.571 81.1425C285.703 81.1425 285 80.4397 285 79.5711C285 78.7029 285.703 78 286.571 78C287.439 78 288.143 78.7028 288.143 79.5711Z" fill="#FEFEFE"/>
    <path d="M369.143 195.571C369.143 196.44 368.439 197.143 367.571 197.143C366.703 197.143 366 196.44 366 195.571C366 194.703 366.703 194 367.571 194C368.439 194 369.143 194.703 369.143 195.571Z" fill="#FEFEFE"/>
    <path d="M278 140.5C278 141.329 277.328 142 276.5 142C275.672 142 275 141.329 275 140.5C275 139.671 275.672 139 276.5 139C277.328 139 278 139.671 278 140.5Z" fill="#FEFEFE"/>
    <path d="M11 176C11 176.553 10.5523 177 9.99991 177C9.44771 177 9 176.553 9 176C9 175.447 9.44771 175 9.99991 175C10.5523 175 11 175.447 11 176Z" fill="#FEFEFE"/>
    <path d="M162.143 20.5714C162.143 21.4397 161.439 22.1425 160.571 22.1425C159.703 22.1425 159 21.4397 159 20.5714C159 19.7041 159.703 19 160.571 19C161.439 19 162.143 19.7041 162.143 20.5714Z" fill="#FEFEFE"/>
    <path d="M202.31 137.135C202.31 137.762 201.802 138.271 201.175 138.271C200.549 138.271 200.041 137.762 200.041 137.135C200.041 136.509 200.549 136 201.175 136C201.802 136 202.31 136.509 202.31 137.135Z" fill="#FEFEFE"/>
    <path d="M55 107C55 108.105 54.1047 109 53.0001 109C51.8953 109 51 108.105 51 107C51 105.895 51.8953 105 53.0001 105C54.1047 105 55 105.895 55 107Z" fill="#FEFEFE"/>
    <path fill-rule="evenodd" clip-rule="evenodd" d="M401.803 125.577H320C323.41 122.652 327.834 120.874 332.681 120.874C333.358 120.874 334.029 120.909 334.691 120.977C335.83 111.29 344.063 103.773 354.055 103.773C358.055 103.773 361.772 104.979 364.867 107.043C365.965 104.659 368.369 103 371.166 103C374.998 103 378.104 106.106 378.104 109.937C378.104 111.56 377.542 113.048 376.607 114.23C377.099 114.598 377.501 115.081 377.761 115.646C379.421 114.54 381.411 113.894 383.555 113.894C388.909 113.894 393.32 117.921 393.932 123.113C394.286 123.076 394.646 123.057 395.01 123.057C397.606 123.057 399.977 124.009 401.803 125.578L401.803 125.577Z" fill="#5B7DAD"/>
    <defs>
        <linearGradient id="paint0_linear" x1="187.5" y1="311.713" x2="187.5" y2="0.97423" gradientUnits="userSpaceOnUse">
            <stop stop-color="#5A89C6"/>
            <stop offset="1" stop-color="#253C73"/>
        </linearGradient>
    </defs>
</svg>
